[
  {
    "orderId":"1",
    "bookTitle":"灵境行者",
    "bookAuth":"卖报小郎君",
    "bookContent":"亘古通今，传闻世有灵境。关于灵境的说法，历朝历代的名人雅士众说纷纭，诗中记载：“自齐至唐，兹山濅荒，灵境寂寥，罕有人游。”“灵境不可状，鬼工谅难求。”",
    "searchKey":"灵境行者",
    "bookUrl":"https://bookcover.yuewen.com/qdbimg/349573/1031940621/600.webp"
  },
  {
    "orderId":"2",
    "bookTitle":"谁让他修仙的！",
    "bookAuth":"最白的乌鸦",
    "bookContent":"“我反复强调，修仙界的风气本来就是歪的，不是我带歪的，都说史书是胜利者书写的，那为什么我获胜了还总是有人诬陷我？”陆阳剑仙面对记者采访如此说道，表示非常愤怒。",
    "searchKey":"谁让他修仙的！",
    "bookUrl":"https://bookcover.yuewen.com/qdbimg/349573/1036504904/600.webp"
  },
  {
    "orderId":"3",
    "bookTitle":"赤心巡天",
    "bookAuth":"情何以甚",
    "bookContent":"上古时代，妖族绝迹。近古时代，龙族消失。神道大昌的时代已经如烟，飞剑绝巅的时代终究沉沦……",
    "searchKey":"赤心巡天",
    "bookUrl":"https://bookcover.yuewen.com/qdbimg/349573/1016530091/600.webp"
  },
  {
    "orderId":"4",
    "bookTitle":"都重生了谁谈恋爱啊",
    "bookAuth":"错哪儿了",
    "bookContent":"奋斗到三十八岁买不起房，要结婚得先付三十万彩礼，省吃俭用大半生，卷到肝都碎了，可是钱呢？钱到底被谁赚走了？怀带着无数怨气的江勤重生十八岁，睁开眼的唯一念头就是创业搞钱。 ",
    "searchKey":"都重生了谁谈恋爱啊",
    "bookUrl":"https://bookcover.yuewen.com/qdbimg/349573/1037068783/600.webp"
  },
  {
    "orderId":"5",
    "bookTitle":"万相之王",
    "bookAuth":"天蚕土豆",
    "bookContent":"天地间，有万相。而我李洛，终将成为这万相之王。继《斗破苍穹》《武动乾坤》《大主宰》《元尊》之后，天蚕土豆又一部玄幻力作。",
    "searchKey":"万相之王",
    "bookUrl":"https://bookcover.yuewen.com/qdbimg/349573/1027368101/180.webp"
  },
  {
    "orderId":"6",
    "bookTitle":"仙人消失之后",
    "bookAuth":"风行水云间",
    "bookContent":"三千年前，天魔降临。仙人出手，胜而逐之，天魔退出人间。其后天地灾变致灵气衰弱，仙人消失，天魔却化身神明，重新渗透人间；一百六十多年前，神物降临。富饶的赤帕高原、战无不胜的盘龙古城，尽数化为黄土；如今，我，降临了！",
    "searchKey":"仙人消失之后",
    "bookUrl":"https://bookcover.yuewen.com/qdbimg/349573/1033991975/600.webp"
  },
  {
    "orderId":"7",
    "bookTitle":"额尔古纳河右岸",
    "bookAuth":"迟子建",
    "bookContent":"女作家迟子建以一位年届九旬的鄂温克族最后一位酋长女人的自述口吻，向我们讲述了这个弱小民族顽强的抗争和优美的爱情。小说语言妙，以简约之美写活了一群鲜为人知、有血有的鄂温克人。小说以小见大，以一曲对弱小民族的挽歌，写出了人类历史进程中的悲哀，其文学主题具有史诗品格与世界意义。",
    "searchKey":"额尔古纳河右岸",
    "bookUrl":"http://m.apoxs.com/bookface/44638.jpg"
  },
  {
    "orderId":"8",
    "bookTitle":"谍影凌云",
    "bookAuth":"罗飞羽",
    "bookContent":"一名后世的化妆师，穿越过去，吸收了两个人的记忆。追查日谍，捣毁无数日谍组织，抓捕一名又一名日谍的楚凌云，同时伪装成日本人，深入敌群，套取情报，周旋在日本高层之中。在那个动荡的年代，楚凌云用自己的机智和智慧，为祖国的烽火事业贡献着自己的力量，立下了不可磨灭的功勋。",
    "searchKey":"谍影凌云",
    "bookUrl":"https://bookcover.yuewen.com/qdbimg/349573/1034379627/600.webp"
  },
  {
    "orderId":"9",
    "bookTitle":"宿命之环",
    "bookAuth":"爱潜水的乌贼",
    "bookContent":"诡秘世界第二部。1368之年，七月之末，深红将从天而降。",
    "searchKey":"宿命之环",
    "bookUrl":"https://bookcover.yuewen.com/qdbimg/349573/1036370336/600.webp"
  },
  {
    "orderId":"10",
    "bookTitle":"逼我重生是吧",
    "bookAuth":"幼儿园一把手",
    "bookContent":"年少有为的程逐在网上看到了一个问题：“如果给你一个回到过去重生的机会，你想要吗？”",
    "searchKey":"逼我重生是吧",
    "bookUrl":"https://bookcover.yuewen.com/qdbimg/349573/1037551048/600.webp"
  },
  {
    "orderId":"11",
    "bookTitle":"我有一个修仙世界",
    "bookAuth":"纯九莲宝灯",
    "bookContent":"陈莫白，仙门高三学子，正在努力复习准备考取大道院，本来他这辈子最大的梦想也就是筑基成功，直到他能穿越到另外一个修仙世界，然后，梦想就变了……",
    "searchKey":"我有一个修仙世界",
    "bookUrl":"https://bookcover.yuewen.com/qdbimg/349573/1033296433/600.webp"
  },
  {
    "orderId":"12",
    "bookTitle":"玄鉴仙族",
    "bookAuth":"季越人",
    "bookContent":"陆江仙熬夜猝死，残魂却附在了一面满是裂痕的青灰色铜镜上，飘落到了浩瀚无垠的修仙世界。凶险难测的大黎山，眉尺河旁小小的村落，一个小家族拾到了这枚镜子，于是传仙道授仙法，开启波澜壮阔的新时代。",
    "searchKey":"玄鉴仙族",
    "bookUrl":"https://bookcover.yuewen.com/qdbimg/349573/1035420986/600.webp"
  },
  {
    "orderId":"13",
    "bookTitle":"斗破苍穹",
    "bookAuth":"天蚕土豆",
    "bookContent":"这里是属于斗气的世界，没有花俏艳丽的魔法，有的，仅仅是繁衍到巅峰的斗气！新书等级制度：斗者，斗师，大斗师，斗灵，斗王，斗皇，斗宗，斗尊，斗圣，斗帝。",
    "searchKey":"斗破苍穹",
    "bookUrl":"https://bookcover.yuewen.com/qdbimg/349573/1209977/600.webp"
  },
  {
    "orderId":"14",
    "bookTitle":"圣墟",
    "bookAuth":"辰东",
    "bookContent":"在破败中崛起，在寂灭中复苏。沧海成尘，雷电枯竭，那一缕幽雾又一次临近大地，世间的枷锁被打开了，一个全新的世界就此揭开神秘的一角……",
    "searchKey":"圣墟",
    "bookUrl":"https://bookcover.yuewen.com/qdbimg/349573/1004608738/600.webp"
  },
  {
    "orderId":"15",
    "bookTitle":"诡秘之主",
    "bookAuth":"爱潜水的乌贼",
    "bookContent":"蒸汽与机械的浪潮中，谁能触及非凡？历史和黑暗的迷雾里，又是谁在耳语？我从诡秘中醒来，睁眼看见这个世界：枪械，大炮，巨舰，飞空艇，差分机；魔药，占卜，诅咒，倒吊人，封印物……光明依旧照耀，神秘从未远离，这是一段“愚者”的传说",
    "searchKey":"诡秘之主",
    "bookUrl":"https://bookcover.yuewen.com/qdbimg/349573/1010868264/600.webp"
  },
  {
    "orderId":"16",
    "bookTitle":"我的超能力每周刷新",
    "bookAuth":"一片雪饼",
    "bookContent":"陈源发现自己每周都会刷新一次超能力。第一周，他看到只要有生命特征的物体上都挂着一个红色的数字，从几百、几千，到几万到不等，其中见过数字最小的是一只泰迪，头上的数字是0.00001，然后下一秒它就被大卡车碾死了。",
    "searchKey":"我的超能力每周刷新",
    "bookUrl":"https://bookcover.yuewen.com/qdbimg/349573/1037632698/600.webp"
  },
  {
    "orderId":"17",
    "bookTitle":"千古群雄闯三国",
    "bookAuth":"星落乾坤",
    "bookContent":"华夏历代群雄乱入三国，将会给这个波澜壮阔的时代带来何等精彩的传奇？关羽、冉闵、李存孝、高宠、常遇春……一骑当千的盖世猛将何人当称最强？",
    "searchKey":"千古群雄闯三国",
    "bookUrl":"https://bookcover.yuewen.com/qdbimg/349573/1037215266/600.webp"
  },
  {
    "orderId":"18",
    "bookTitle":"长生从炼丹宗师开始",
    "bookAuth":"雨去欲续",
    "bookContent":"山人是为仙，往来青云巅。阴阳炉中炼，大道在心间。罗尘穿越修仙界，以一块熟练度面板，炼丹服气，习法研术，一步步走向长生大道。",
    "searchKey":"长生从炼丹宗师开始",
    "bookUrl":"https://bookcover.yuewen.com/qdbimg/349573/1036526469/600.webp"
  },
  {
    "orderId":"19",
    "bookTitle":"这游戏也太真实了",
    "bookAuth":"晨星LL",
    "bookContent":"这游戏也太真实了叭！搬砖、跑腿、捡垃圾、送快递……公司最多能让你体会到996的艰辛，在这里你能体会到超级加倍的007。好了，不废话了，伟大的管理者大人喊我去搬砖了。",
    "searchKey":"这游戏也太真实了",
    "bookUrl":"https://bookcover.yuewen.com/qdbimg/349573/1029391348/600.webp"
  },
  {
    "orderId":"20",
    "bookTitle":"深海余烬",
    "bookAuth":"远瞳",
    "bookContent":"在那一天，浓雾封锁了一切。在那一天，他成为了一艘幽灵船的船长。在那一天，他跨过浓雾，直面了一个被彻底颠覆而又支离破碎的世界——昔日的秩序已经荡然无存，奇诡的异象主宰着文明社会之外的无尽海域",
    "searchKey":"深海余烬",
    "bookUrl":"https://bookcover.yuewen.com/qdbimg/349573/1034360760/600.webp"
  }
]